Stat 558: Project 1
…
Here is an example call for Tennessee (code STATE = 47) from \(2024\) citizens having a doctorate (code SCHL = 24), that returns the categorical variables SEX and marital status (MAR) and the numeric variable weight (PWGTP).

census_tn <- GET("https://api.census.gov/data/2024/acs/acs1/pums?get=SEX,PWGTP,MAR&for=state:47&SCHL=24&key=5f3b8018114ef7902b34be730306e5ebf9102875")

Then we use helper functions to “clean” up the data.

census_tn_tibble <- census_tn$content |>
  rawToChar() |>
  fromJSON() |>
  as_tibble(.name_repair = "minimal") |>
  row_to_names(row_number = 1) # "promotes" first row to column headers

census_tn_tibble

# A tibble: 917 × 5
   SEX   PWGTP MAR   SCHL  state
   <chr> <chr> <chr> <chr> <chr>
 1 2     117   1     24    47   
 2 2     60    3     24    47   
 3 2     95    1     24    47   
 4 2     45    1     24    47   
 5 1     112   1     24    47   
 6 2     119   1     24    47   
 7 1     158   1     24    47   
 8 2     70    1     24    47   
 9 1     58    1     24    47   
10 1     54    1     24    47   
# ℹ 907 more rows
…
